﻿Log file open, 03/10/20 09:46:41
LogWindows: Failed to load 'aqProf.dll' (GetLastError=126)
LogWindows: File 'aqProf.dll' does not exist
LogWindows: Failed to load 'VtuneApi.dll' (GetLastError=126)
LogWindows: File 'VtuneApi.dll' does not exist
LogWindows: Failed to load 'VtuneApi32e.dll' (GetLastError=126)
LogWindows: File 'VtuneApi32e.dll' does not exist
LogConsoleResponse: Display: Failed to find resolution value strings in scalability ini. Falling back to default.
LogInit: Display: Running engine for game: MyProject2
LogPakFile: Registered encryption key '00000000000000000000000000000000': 0 pak files mounted, 0 remain pending
LogPlatformFile: Not using cached read wrapper
LogTaskGraph: Started task graph with 5 named threads and 14 total threads with 3 sets of task threads.
LogStats: Stats thread started at 2.353899
LogD3D11RHI: Loaded GFSDK_Aftermath_Lib.x64.dll
LogICUInternationalization: ICU TimeZone Detection - Raw Offset: +7:00, Platform Override: ''
LogPluginManager: Mounting plugin Paper2D
LogPluginManager: Mounting plugin AISupport
LogPluginManager: Mounting plugin LightPropagationVolume
LogPluginManager: Mounting plugin ActorLayerUtilities
LogPluginManager: Mounting plugin AnimationSharing
LogPluginManager: Mounting plugin CLionSourceCodeAccess
LogPluginManager: Mounting plugin CodeLiteSourceCodeAccess
LogPluginManager: Mounting plugin GitSourceControl
LogPluginManager: Mounting plugin KDevelopSourceCodeAccess
LogPluginManager: Mounting plugin NullSourceCodeAccess
LogPluginManager: Mounting plugin PerforceSourceControl
LogPluginManager: Mounting plugin SubversionSourceControl
LogPluginManager: Mounting plugin UObjectPlugin
LogPluginManager: Mounting plugin VisualStudioCodeSourceCodeAccess
LogPluginManager: Mounting plugin VisualStudioSourceCodeAccess
LogPluginManager: Mounting plugin XCodeSourceCodeAccess
LogPluginManager: Mounting plugin AssetManagerEditor
LogPluginManager: Mounting plugin CryptoKeys
LogPluginManager: Mounting plugin DataValidation
LogPluginManager: Mounting plugin FacialAnimation
LogPluginManager: Mounting plugin GameplayTagsEditor
LogPluginManager: Mounting plugin MacGraphicsSwitching
LogPluginManager: Mounting plugin MaterialAnalyzer
LogPluginManager: Mounting plugin MobileLauncherProfileWizard
LogPluginManager: Mounting plugin PluginBrowser
LogPluginManager: Mounting plugin SpeedTreeImporter
LogPluginManager: Mounting plugin DatasmithContent
LogPluginManager: Mounting plugin VariantManagerContent
LogPluginManager: Mounting plugin AlembicImporter
LogPluginManager: Mounting plugin AppleImageUtils
LogPluginManager: Mounting plugin AppleVision
LogPluginManager: Mounting plugin BackChannel
LogPluginManager: Mounting plugin CharacterAI
LogPluginManager: Mounting plugin GeometryCache
LogPluginManager: Mounting plugin HTML5Networking
LogPluginManager: Mounting plugin ProxyLODPlugin
LogPluginManager: Mounting plugin SkeletalReduction
LogPluginManager: Mounting plugin MagicLeap
LogPluginManager: Mounting plugin MagicLeapMedia
LogPluginManager: Mounting plugin AndroidMedia
LogPluginManager: Mounting plugin AvfMedia
LogPluginManager: Mounting plugin ImgMedia
LogPluginManager: Mounting plugin LinearTimecode
LogPluginManager: Mounting plugin MediaCompositing
LogPluginManager: Mounting plugin MediaPlayerEditor
LogPluginManager: Mounting plugin WebMMedia
LogPluginManager: Mounting plugin WmfMedia
LogPluginManager: Mounting plugin TcpMessaging
LogPluginManager: Mounting plugin UdpMessaging
LogPluginManager: Mounting plugin ActorSequence
LogPluginManager: Mounting plugin LevelSequenceEditor
LogPluginManager: Mounting plugin MatineeToLevelSequence
LogPluginManager: Mounting plugin NetcodeUnitTest
LogPluginManager: Mounting plugin NUTUnrealEngine4
LogPluginManager: Mounting plugin OnlineSubsystemGooglePlay
LogPluginManager: Mounting plugin OnlineSubsystemIOS
LogPluginManager: Mounting plugin OnlineSubsystem
LogPluginManager: Mounting plugin OnlineSubsystemNull
LogPluginManager: Mounting plugin OnlineSubsystemUtils
LogPluginManager: Mounting plugin LauncherChunkInstaller
LogPluginManager: Mounting plugin AndroidDeviceProfileSelector
LogPluginManager: Mounting plugin AndroidMoviePlayer
LogPluginManager: Mounting plugin AndroidPermission
LogPluginManager: Mounting plugin AppleMoviePlayer
LogPluginManager: Mounting plugin ArchVisCharacter
LogPluginManager: Mounting plugin AudioCapture
LogPluginManager: Mounting plugin CableComponent
LogPluginManager: Mounting plugin CustomMeshComponent
LogPluginManager: Mounting plugin EditableMesh
LogPluginManager: Mounting plugin ExampleDeviceProfileSelector
LogPluginManager: Mounting plugin Firebase
LogPluginManager: Mounting plugin GoogleCloudMessaging
LogPluginManager: Mounting plugin IOSDeviceProfileSelector
LogPluginManager: Mounting plugin LinuxDeviceProfileSelector
LogPluginManager: Mounting plugin LocationServicesBPLibrary
LogPluginManager: Mounting plugin MobilePatchingUtils
LogPluginManager: Mounting plugin OculusVR
LogPluginManager: Mounting plugin PhysXVehicles
LogPluginManager: Mounting plugin ProceduralMeshComponent
LogPluginManager: Mounting plugin RuntimePhysXCooking
LogPluginManager: Mounting plugin SignificanceManager
LogPluginManager: Mounting plugin SteamVR
LogPluginManager: Mounting plugin WebMMoviePlayer
LogPluginManager: Mounting plugin WindowsMoviePlayer
LogInit: Using libcurl 7.55.1-DEV
LogInit:  - built for x86_64-pc-win32
LogInit:  - supports SSL with OpenSSL/1.1.1
LogInit:  - supports HTTP deflate (compression) using libz 1.2.8
LogInit:  - other features:
LogInit:      CURL_VERSION_SSL
LogInit:      CURL_VERSION_LIBZ
LogInit:      CURL_VERSION_IPV6
LogInit:      CURL_VERSION_ASYNCHDNS
LogInit:      CURL_VERSION_LARGEFILE
LogInit:      CURL_VERSION_IDN
LogInit:  CurlRequestOptions (configurable via config and command line):
LogInit:  - bVerifyPeer = true  - Libcurl will verify peer certificate
LogInit:  - bUseHttpProxy = false  - Libcurl will NOT use HTTP proxy
LogInit:  - bDontReuseConnections = false  - Libcurl will reuse connections
LogInit:  - MaxHostConnections = 16  - Libcurl will limit the number of connections to a host
LogInit:  - LocalHostAddr = Default
LogInit:  - BufferSize = 65536
LogInit: WinSock: version 1.1 (2.2), MaxSocks=32767, MaxUdp=65467
LogInit: Build: ++UE4+Release-4.22-CL-7053642
LogInit: Engine Version: 4.22.3-7053642+++UE4+Release-4.22
LogInit: Compatible Engine Version: 4.22.0-5660361+++UE4+Release-4.22
LogInit: Net CL: 5660361
LogInit: OS: Windows 10 (Release 1903) (), CPU: Intel(R) Core(TM) i5-4460  CPU @ 3.20GHz, GPU: NVIDIA GeForce GTX 960
LogInit: Compiled (64-bit): Jun 18 2019 03:09:11
LogInit: Compiled with Visual C++: 19.16.27025.01
LogInit: Build Configuration: Development
LogInit: Branch Name: ++UE4+Release-4.22
LogInit: Command Line: 
LogInit: Base Directory: C:/Program Files/Epic Games/UE_4.22/Engine/Binaries/Win64/
LogInit: Installed Engine Build: 1
LogDevObjectVersion: Number of dev versions registered: 23
LogDevObjectVersion:   Dev-Blueprints (B0D832E4-1F89-4F0D-ACCF-7EB736FD4AA2): 10
LogDevObjectVersion:   Dev-Build (E1C64328-A22C-4D53-A36C-8E866417BD8C): 0
LogDevObjectVersion:   Dev-Core (375EC13C-06E4-48FB-B500-84F0262A717E): 3
LogDevObjectVersion:   Dev-Editor (E4B068ED-F494-42E9-A231-DA0B2E46BB41): 30
LogDevObjectVersion:   Dev-Framework (CFFC743F-43B0-4480-9391-14DF171D2073): 35
LogDevObjectVersion:   Dev-Mobile (B02B49B5-BB20-44E9-A304-32B752E40360): 2
LogDevObjectVersion:   Dev-Networking (A4E4105C-59A1-49B5-A7C5-40C4547EDFEE): 0
LogDevObjectVersion:   Dev-Online (39C831C9-5AE6-47DC-9A44-9C173E1C8E7C): 0
LogDevObjectVersion:   Dev-Physics (78F01B33-EBEA-4F98-B9B4-84EACCB95AA2): 0
LogDevObjectVersion:   Dev-Platform (6631380F-2D4D-43E0-8009-CF276956A95A): 0
LogDevObjectVersion:   Dev-Rendering (12F88B9F-8875-4AFC-A67C-D90C383ABD29): 28
LogDevObjectVersion:   Dev-Sequencer (7B5AE74C-D270-4C10-A958-57980B212A5A): 11
LogDevObjectVersion:   Dev-VR (D7296918-1DD6-4BDD-9DE2-64A83CC13884): 2
LogDevObjectVersion:   Dev-LoadTimes (C2A15278-BFE7-4AFE-6C17-90FF531DF755): 1
LogDevObjectVersion:   Private-Geometry (6EACA3D4-40EC-4CC1-B786-8BED09428FC5): 3
LogDevObjectVersion:   Dev-AnimPhys (29E575DD-E0A3-4627-9D10-D276232CDCEA): 17
LogDevObjectVersion:   Dev-Anim (AF43A65D-7FD3-4947-9873-3E8ED9C1BB05): 2
LogDevObjectVersion:   Dev-ReflectionCapture (6B266CEC-1EC7-4B8F-A30B-E4D90942FC07): 1
LogDevObjectVersion:   Dev-Automation (0DF73D61-A23F-47EA-B727-89E90C41499A): 1
LogDevObjectVersion:   FortniteMain (601D1886-AC64-4F84-AA16-D3DE0DEAC7D6): 25
LogDevObjectVersion:   Dev-Enterprise (9DFFBCD6-494F-0158-E221-12823C92A888): 6
LogDevObjectVersion:   Dev-Niagara (F2AED0AC-9AFE-416F-8664-AA7FFA26D6FC): 1
LogDevObjectVersion:   Dev-Destruction (174F1F0B-B4C6-45A5-B13F-2EE8D0FB917D): 2
LogInit: Presizing for max 16777216 objects, including 0 objects not considered by GC, pre-allocating 0 bytes for permanent pool.
LogInit: Object subsystem initialized
LogConfig: Setting CVar [[con.DebugEarlyDefault:1]]
LogConfig: Setting CVar [[r.setres:1280x720]]
[2020.03.10-02.46.43:454][  0]LogConfig: Setting CVar [[r.VSync:0]]
[2020.03.10-02.46.43:454][  0]LogConfig: Setting CVar [[r.RHICmdBypass:0]]
[2020.03.10-02.46.43:454][  0]LogConfig: Applying CVar settings from Section [/Script/Engine.RendererSettings] File [C:/Users/Пользователь/Desktop/SkillBox/Homework/HM8/MyProject2/Saved/Config/Windows/Engine.ini]
[2020.03.10-02.46.43:454][  0]LogConfig: Setting CVar [[r.GPUCrashDebugging:0]]
[2020.03.10-02.46.43:454][  0]LogConfig: Applying CVar settings from Section [/Script/Engine.RendererOverrideSettings] File [C:/Users/Пользователь/Desktop/SkillBox/Homework/HM8/MyProject2/Saved/Config/Windows/Engine.ini]
[2020.03.10-02.46.43:454][  0]LogConfig: Applying CVar settings from Section [/Script/Engine.StreamingSettings] File [C:/Users/Пользователь/Desktop/SkillBox/Homework/HM8/MyProject2/Saved/Config/Windows/Engine.ini]
[2020.03.10-02.46.43:454][  0]LogConfig: Setting CVar [[s.MinBulkDataSizeForAsyncLoading:131072]]
[2020.03.10-02.46.43:454][  0]LogConfig: Setting CVar [[s.AsyncLoadingThreadEnabled:0]]
[2020.03.10-02.46.43:454][  0]LogConfig: Setting CVar [[s.EventDrivenLoaderEnabled:1]]
[2020.03.10-02.46.43:454][  0]LogConfig: Setting CVar [[s.WarnIfTimeLimitExceeded:0]]
[2020.03.10-02.46.43:454][  0]LogConfig: Setting CVar [[s.TimeLimitExceededMultiplier:1.5]]
[2020.03.10-02.46.43:454][  0]LogConfig: Setting CVar [[s.TimeLimitExceededMinTime:0.005]]
[2020.03.10-02.46.43:454][  0]LogConfig: Setting CVar [[s.UseBackgroundLevelStreaming:1]]
[2020.03.10-02.46.43:454][  0]LogConfig: Setting CVar [[s.PriorityAsyncLoadingExtraTime:15.0]]
[2020.03.10-02.46.43:454][  0]LogConfig: Setting CVar [[s.LevelStreamingActorsUpdateTimeLimit:5.0]]
[2020.03.10-02.46.43:454][  0]LogConfig: Setting CVar [[s.PriorityLevelStreamingActorsUpdateExtraTime:5.0]]
[2020.03.10-02.46.43:454][  0]LogConfig: Setting CVar [[s.LevelStreamingComponentsRegistrationGranularity:10]]
[2020.03.10-02.46.43:454][  0]LogConfig: Setting CVar [[s.UnregisterComponentsTimeLimit:1.0]]
[2020.03.10-02.46.43:454][  0]LogConfig: Setting CVar [[s.LevelStreamingComponentsUnregistrationGranularity:5]]
[2020.03.10-02.46.43:454][  0]LogConfig: Applying CVar settings from Section [/Script/Engine.GarbageCollectionSettings] File [C:/Users/Пользователь/Desktop/SkillBox/Homework/HM8/MyProject2/Saved/Config/Windows/Engine.ini]
[2020.03.10-02.46.43:454][  0]LogConfig: Setting CVar [[gc.MaxObjectsNotConsideredByGC:1]]
[2020.03.10-02.46.43:454][  0]LogConfig: Setting CVar [[gc.SizeOfPermanentObjectPool:0]]
[2020.03.10-02.46.43:454][  0]LogConfig: Setting CVar [[gc.FlushStreamingOnGC:0]]
[2020.03.10-02.46.43:454][  0]LogConfig: Setting CVar [[gc.NumRetriesBeforeForcingGC:10]]
[2020.03.10-02.46.43:454][  0]LogConfig: Setting CVar [[gc.AllowParallelGC:1]]
[2020.03.10-02.46.43:455][  0]LogConfig: Setting CVar [[gc.TimeBetweenPurgingPendingKillObjects:61.1]]
[2020.03.10-02.46.43:455][  0]LogConfig: Setting CVar [[gc.MaxObjectsInEditor:16777216]]
[2020.03.10-02.46.43:455][  0]LogConfig: Setting CVar [[gc.IncrementalBeginDestroyEnabled:1]]
[2020.03.10-02.46.43:455][  0]LogConfig: Setting CVar [[gc.CreateGCClusters:1]]
[2020.03.10-02.46.43:455][  0]LogConfig: Setting CVar [[gc.MinGCClusterSize:5]]
[2020.03.10-02.46.43:455][  0]LogConfig: Setting CVar [[gc.ActorClusteringEnabled:0]]
[2020.03.10-02.46.43:455][  0]LogConfig: Setting CVar [[gc.BlueprintClusteringEnabled:0]]
[2020.03.10-02.46.43:455][  0]LogConfig: Setting CVar [[gc.UseDisregardForGCOnDedicatedServers:0]]
[2020.03.10-02.46.43:455][  0]LogConfig: Applying CVar settings from Section [/Script/Engine.NetworkSettings] File [C:/Users/Пользователь/Desktop/SkillBox/Homework/HM8/MyProject2/Saved/Config/Windows/Engine.ini]
[2020.03.10-02.46.43:455][  0]LogConfig: Applying CVar settings from Section [/Script/UnrealEd.CookerSettings] File [C:/Users/Пользователь/Desktop/SkillBox/Homework/HM8/MyProject2/Saved/Config/Windows/Engine.ini]
[2020.03.10-02.46.43:485][  0]LogConfig: Applying CVar settings from Section [ViewDistanceQuality@3] File [C:/Users/Пользователь/Desktop/SkillBox/Homework/HM8/MyProject2/Saved/Config/Windows/Scalability.ini]
[2020.03.10-02.46.43:485][  0]LogConfig: Setting CVar [[r.SkeletalMeshLODBias:0]]
[2020.03.10-02.46.43:485][  0]LogConfig: Setting CVar [[r.ViewDistanceScale:1.0]]
[2020.03.10-02.46.43:485][  0]LogConfig: Applying CVar settings from Section [AntiAliasingQuality@3] File [C:/Users/Пользователь/Desktop/SkillBox/Homework/HM8/MyProject2/Saved/Config/Windows/Scalability.ini]
[2020.03.10-02.46.43:485][  0]LogConfig: Setting CVar [[r.PostProcessAAQuality:4]]
[2020.03.10-02.46.43:485][  0]LogConfig: Applying CVar settings from Section [ShadowQuality@3] File [C:/Users/Пользователь/Desktop/SkillBox/Homework/HM8/MyProject2/Saved/Config/Windows/Scalability.ini]
[2020.03.10-02.46.43:485][  0]LogConfig: Setting CVar [[r.LightFunctionQuality:1]]
[2020.03.10-02.46.43:485][  0]LogConfig: Setting CVar [[r.ShadowQuality:5]]
[2020.03.10-02.46.43:485][  0]LogConfig: Setting CVar [[r.Shadow.CSM.MaxCascades:10]]
[2020.03.10-02.46.43:485][  0]LogConfig: Setting CVar [[r.Shadow.MaxResolution:2048]]
[2020.03.10-02.46.43:485][  0]LogConfig: Setting CVar [[r.Shadow.MaxCSMResolution:2048]]
[2020.03.10-02.46.43:485][  0]LogConfig: Setting CVar [[r.Shadow.RadiusThreshold:0.01]]
[2020.03.10-02.46.43:485][  0]LogConfig: Setting CVar [[r.Shadow.DistanceScale:1.0]]
[2020.03.10-02.46.43:485][  0]LogConfig: Setting CVar [[r.Shadow.CSM.TransitionScale:1.0]]
[2020.03.10-02.46.43:485][  0]LogConfig: Setting CVar [[r.Shadow.PreShadowResolutionFactor:1.0]]
[2020.03.10-02.46.43:485][  0]LogConfig: Setting CVar [[r.DistanceFieldShadowing:1]]
[2020.03.10-02.46.43:485][  0]LogConfig: Setting CVar [[r.DistanceFieldAO:1]]
[2020.03.10-02.46.43:485][  0]LogConfig: Setting CVar [[r.AOQuality:2]]
[2020.03.10-02.46.43:485][  0]LogConfig: Setting CVar [[r.VolumetricFog:1]]
[2020.03.10-02.46.43:485][  0]LogConfig: Setting CVar [[r.VolumetricFog.GridPixelSize:8]]
[2020.03.10-02.46.43:485][  0]LogConfig: Setting CVar [[r.VolumetricFog.GridSizeZ:128]]
[2020.03.10-02.46.43:485][  0]LogConfig: Setting CVar [[r.VolumetricFog.HistoryMissSupersampleCount:4]]
[2020.03.10-02.46.43:485][  0]LogConfig: Setting CVar [[r.LightMaxDrawDistanceScale:1]]
[2020.03.10-02.46.43:485][  0]LogConfig: Setting CVar [[r.CapsuleShadows:1]]
[2020.03.10-02.46.43:485][  0]LogConfig: Applying CVar settings from Section [PostProcessQuality@3] File [C:/Users/Пользователь/Desktop/SkillBox/Homework/HM8/MyProject2/Saved/Config/Windows/Scalability.ini]
[2020.03.10-02.46.43:485][  0]LogConfig: Setting CVar [[r.MotionBlurQuality:4]]
[2020.03.10-02.46.43:485][  0]LogConfig: Setting CVar [[r.AmbientOcclusionMipLevelFactor:0.4]]
[2020.03.10-02.46.43:485][  0]LogConfig: Setting CVar [[r.AmbientOcclusionMaxQuality:100]]
[2020.03.10-02.46.43:486][  0]LogConfig: Setting CVar [[r.AmbientOcclusionLevels:-1]]
[2020.03.10-02.46.43:486][  0]LogConfig: Setting CVar [[r.AmbientOcclusionRadiusScale:1.0]]
[2020.03.10-02.46.43:486][  0]LogConfig: Setting CVar [[r.DepthOfFieldQuality:2]]
[2020.03.10-02.46.43:486][  0]LogConfig: Setting CVar [[r.RenderTargetPoolMin:400]]
[2020.03.10-02.46.43:486][  0]LogConfig: Setting CVar [[r.LensFlareQuality:2]]
[2020.03.10-02.46.43:486][  0]LogConfig: Setting CVar [[r.SceneColorFringeQuality:1]]
[2020.03.10-02.46.43:486][  0]LogConfig: Setting CVar [[r.EyeAdaptationQuality:2]]
[2020.03.10-02.46.43:486][  0]LogConfig: Setting CVar [[r.BloomQuality:5]]
[2020.03.10-02.46.43:486][  0]LogConfig: Setting CVar [[r.FastBlurThreshold:100]]
[2020.03.10-02.46.43:486][  0]LogConfig: Setting CVar [[r.Upscale.Quality:3]]
[2020.03.10-02.46.43:486][  0]LogConfig: Setting CVar [[r.Tonemapper.GrainQuantization:1]]
[2020.03.10-02.46.43:486][  0]LogConfig: Setting CVar [[r.LightShaftQuality:1]]
[2020.03.10-02.46.43:486][  0]LogConfig: Setting CVar [[r.Filter.SizeScale:1]]
[2020.03.10-02.46.43:486][  0]LogConfig: Setting CVar [[r.Tonemapper.Quality:5]]
[2020.03.10-02.46.43:486][  0]LogConfig: Setting CVar [[r.DOF.Gather.AccumulatorQuality:1        ; higher gathering accumulator quality]]
[2020.03.10-02.46.43:486][  0]LogConfig: Setting CVar [[r.DOF.Gather.PostfilterMethod:1          ; Median3x3 postfilering method]]
[2020.03.10-02.46.43:486][  0]LogConfig: Setting CVar [[r.DOF.Gather.EnableBokehSettings:0       ; no bokeh simulation when gathering]]
[2020.03.10-02.46.43:486][  0]LogConfig: Setting CVar [[r.DOF.Gather.RingCount:4                 ; medium number of samples when gathering]]
[2020.03.10-02.46.43:486][  0]LogConfig: Setting CVar [[r.DOF.Scatter.ForegroundCompositing:1    ; additive foreground scattering]]
[2020.03.10-02.46.43:486][  0]LogConfig: Setting CVar [[r.DOF.Scatter.BackgroundCompositing:2    ; additive background scattering]]
[2020.03.10-02.46.43:486][  0]LogConfig: Setting CVar [[r.DOF.Scatter.EnableBokehSettings:1      ; bokeh simulation when scattering]]
[2020.03.10-02.46.43:486][  0]LogConfig: Setting CVar [[r.DOF.Scatter.MaxSpriteRatio:0.1         ; only a maximum of 10% of scattered bokeh]]
[2020.03.10-02.46.43:486][  0]LogConfig: Setting CVar [[r.DOF.Recombine.Quality:1                ; cheap slight out of focus]]
[2020.03.10-02.46.43:486][  0]LogConfig: Setting CVar [[r.DOF.Recombine.EnableBokehSettings:0    ; no bokeh simulation on slight out of focus]]
[2020.03.10-02.46.43:486][  0]LogConfig: Setting CVar [[r.DOF.TemporalAAQuality:1                ; more stable temporal accumulation]]
[2020.03.10-02.46.43:486][  0]LogConfig: Setting CVar [[r.DOF.Kernel.MaxForegroundRadius:0.025]]
[2020.03.10-02.46.43:486][  0]LogConfig: Setting CVar [[r.DOF.Kernel.MaxBackgroundRadius:0.025]]
[2020.03.10-02.46.43:486][  0]LogConfig: Applying CVar settings from Section [TextureQuality@3] File [C:/Users/Пользователь/Desktop/SkillBox/Homework/HM8/MyProject2/Saved/Config/Windows/Scalability.ini]
[2020.03.10-02.46.43:486][  0]LogConfig: Setting CVar [[r.Streaming.MipBias:0]]
[2020.03.10-02.46.43:486][  0]LogConfig: Setting CVar [[r.Streaming.AmortizeCPUToGPUCopy:0]]
[2020.03.10-02.46.43:486][  0]LogConfig: Setting CVar [[r.Streaming.MaxNumTexturesToStreamPerFrame:0]]
[2020.03.10-02.46.43:486][  0]LogConfig: Setting CVar [[r.Streaming.Boost:1]]
[2020.03.10-02.46.43:486][  0]LogConfig: Setting CVar [[r.MaxAnisotropy:8]]
[2020.03.10-02.46.43:486][  0]LogConfig: Setting CVar [[r.Streaming.LimitPoolSizeToVRAM:0]]
[2020.03.10-02.46.43:486][  0]LogConfig: Setting CVar [[r.Streaming.PoolSize:1000]]
[2020.03.10-02.46.43:486][  0]LogConfig: Setting CVar [[r.Streaming.MaxEffectiveScreenSize:0]]
[2020.03.10-02.46.43:486][  0]LogConfig: Applying CVar settings from Section [EffectsQuality@3] File [C:/Users/Пользователь/Desktop/SkillBox/Homework/HM8/MyProject2/Saved/Config/Windows/Scalability.ini]
[2020.03.10-02.46.43:486][  0]LogConfig: Setting CVar [[r.TranslucencyLightingVolumeDim:64]]
[2020.03.10-02.46.43:486][  0]LogConfig: Setting CVar [[r.RefractionQuality:2]]
[2020.03.10-02.46.43:486][  0]LogConfig: Setting CVar [[r.SSR.Quality:3]]
[2020.03.10-02.46.43:486][  0]LogConfig: Setting CVar [[r.SceneColorFormat:4]]
[2020.03.10-02.46.43:486][  0]LogConfig: Setting CVar [[r.DetailMode:2]]
[2020.03.10-02.46.43:486][  0]LogConfig: Setting CVar [[r.TranslucencyVolumeBlur:1]]
[2020.03.10-02.46.43:486][  0]LogConfig: Setting CVar [[r.MaterialQualityLevel:1 ; High quality]]
[2020.03.10-02.46.43:486][  0]LogConfig: Setting CVar [[r.SSS.Scale:1]]
[2020.03.10-02.46.43:486][  0]LogConfig: Setting CVar [[r.SSS.SampleSet:2]]
[2020.03.10-02.46.43:486][  0]LogConfig: Setting CVar [[r.SSS.Quality:1]]
[2020.03.10-02.46.43:486][  0]LogConfig: Setting CVar [[r.SSS.HalfRes:1]]
[2020.03.10-02.46.43:486][  0]LogConfig: Setting CVar [[r.EmitterSpawnRateScale:1.0]]
[2020.03.10-02.46.43:486][  0]LogConfig: Setting CVar [[r.ParticleLightQuality:2]]
[2020.03.10-02.46.43:486][  0]LogConfig: Applying CVar settings from Section [FoliageQuality@3] File [C:/Users/Пользователь/Desktop/SkillBox/Homework/HM8/MyProject2/Saved/Config/Windows/Scalability.ini]
[2020.03.10-02.46.43:486][  0]LogConfig: Setting CVar [[foliage.DensityScale:1.0]]
[2020.03.10-02.46.43:486][  0]LogConfig: Setting CVar [[grass.DensityScale:1.0]]
[2020.03.10-02.46.43:489][  0]LogInit: Selected Device Profile: [Windows]
[2020.03.10-02.46.43:489][  0]LogInit: Applying CVar settings loaded from the selected device profile: [Windows]
[2020.03.10-02.46.43:538][  0]LogHAL: Display: Platform has ~ 16 GB [17044373504 / 17179869184 / 16], which maps to Larger [LargestMinGB=32, LargerMinGB=12, DefaultMinGB=8, SmallerMinGB=6, SmallestMinGB=0)
[2020.03.10-02.46.43:538][  0]LogConfig: Setting CVar [[r.Vulkan.UseRealUBs:0		; Required until we fix HLR fall-out]]
[2020.03.10-02.46.43:538][  0]LogInit: Going up to parent DeviceProfile []
[2020.03.10-02.46.43:557][  0]LogConfig: Applying CVar settings from Section [ViewDistanceQuality@3] File [C:/Users/Пользователь/Desktop/SkillBox/Homework/HM8/MyProject2/Saved/Config/Windows/Scalability.ini]
[2020.03.10-02.46.43:557][  0]LogConfig: Setting CVar [[r.SkeletalMeshLODBias:0]]
[2020.03.10-02.46.43:557][  0]LogConfig: Setting CVar [[r.ViewDistanceScale:1.0]]
[2020.03.10-02.46.43:557][  0]LogConfig: Applying CVar settings from Section [AntiAliasingQuality@3] File [C:/Users/Пользователь/Desktop/SkillBox/Homework/HM8/MyProject2/Saved/Config/Windows/Scalability.ini]
[2020.03.10-02.46.43:557][  0]LogConfig: Setting CVar [[r.PostProcessAAQuality:4]]
[2020.03.10-02.46.43:557][  0]LogConfig: Applying CVar settings from Section [ShadowQuality@3] File [C:/Users/Пользователь/Desktop/SkillBox/Homework/HM8/MyProject2/Saved/Config/Windows/Scalability.ini]
[2020.03.10-02.46.43:557][  0]LogConfig: Setting CVar [[r.LightFunctionQuality:1]]
[2020.03.10-02.46.43:557][  0]LogConfig: Setting CVar [[r.ShadowQuality:5]]
[2020.03.10-02.46.43:557][  0]LogConfig: Setting CVar [[r.Shadow.CSM.MaxCascades:10]]
[2020.03.10-02.46.43:557][  0]LogConfig: Setting CVar [[r.Shadow.MaxResolution:2048]]
[2020.03.10-02.46.43:557][  0]LogConfig: Setting CVar [[r.Shadow.MaxCSMResolution:2048]]
[2020.03.10-02.46.43:557][  0]LogConfig: Setting CVar [[r.Shadow.RadiusThreshold:0.01]]
[2020.03.10-02.46.43:557][  0]LogConfig: Setting CVar [[r.Shadow.DistanceScale:1.0]]
[2020.03.10-02.46.43:557][  0]LogConfig: Setting CVar [[r.Shadow.CSM.TransitionScale:1.0]]
[2020.03.10-02.46.43:557][  0]LogConfig: Setting CVar [[r.Shadow.PreShadowResolutionFactor:1.0]]
[2020.03.10-02.46.43:557][  0]LogConfig: Setting CVar [[r.DistanceFieldShadowing:1]]
[2020.03.10-02.46.43:557][  0]LogConfig: Setting CVar [[r.DistanceFieldAO:1]]
[2020.03.10-02.46.43:557][  0]LogConfig: Setting CVar [[r.AOQuality:2]]
[2020.03.10-02.46.43:557][  0]LogConfig: Setting CVar [[r.VolumetricFog:1]]
[2020.03.10-02.46.43:557][  0]LogConfig: Setting CVar [[r.VolumetricFog.GridPixelSize:8]]
[2020.03.10-02.46.43:557][  0]LogConfig: Setting CVar [[r.VolumetricFog.GridSizeZ:128]]
[2020.03.10-02.46.43:557][  0]LogConfig: Setting CVar [[r.VolumetricFog.HistoryMissSupersampleCount:4]]
[2020.03.10-02.46.43:558][  0]LogConfig: Setting CVar [[r.LightMaxDrawDistanceScale:1]]
[2020.03.10-02.46.43:558][  0]LogConfig: Setting CVar [[r.CapsuleShadows:1]]
[2020.03.10-02.46.43:558][  0]LogConfig: Applying CVar settings from Section [PostProcessQuality@3] File [C:/Users/Пользователь/Desktop/SkillBox/Homework/HM8/MyProject2/Saved/Config/Windows/Scalability.ini]
[2020.03.10-02.46.43:558][  0]LogConfig: Setting CVar [[r.MotionBlurQuality:4]]
[2020.03.10-02.46.43:558][  0]LogConfig: Setting CVar [[r.AmbientOcclusionMipLevelFactor:0.4]]
[2020.03.10-02.46.43:558][  0]LogConfig: Setting CVar [[r.AmbientOcclusionMaxQuality:100]]
[2020.03.10-02.46.43:558][  0]LogConfig: Setting CVar [[r.AmbientOcclusionLevels:-1]]
[2020.03.10-02.46.43:558][  0]LogConfig: Setting CVar [[r.AmbientOcclusionRadiusScale:1.0]]
[2020.03.10-02.46.43:558][  0]LogConfig: Setting CVar [[r.DepthOfFieldQuality:2]]
[2020.03.10-02.46.43:558][  0]LogConfig: Setting CVar [[r.RenderTargetPoolMin:400]]
[2020.03.10-02.46.43:558][  0]LogConfig: Setting CVar [[r.LensFlareQuality:2]]
[2020.03.10-02.46.43:558][  0]LogConfig: Setting CVar [[r.SceneColorFringeQuality:1]]
[2020.03.10-02.46.43:558][  0]LogConfig: Setting CVar [[r.EyeAdaptationQuality:2]]
[2020.03.10-02.46.43:558][  0]LogConfig: Setting CVar [[r.BloomQuality:5]]
[2020.03.10-02.46.43:558][  0]LogConfig: Setting CVar [[r.FastBlurThreshold:100]]
[2020.03.10-02.46.43:558][  0]LogConfig: Setting CVar [[r.Upscale.Quality:3]]
[2020.03.10-02.46.43:558][  0]LogConfig: Setting CVar [[r.Tonemapper.GrainQuantization:1]]
[2020.03.10-02.46.43:558][  0]LogConfig: Setting CVar [[r.LightShaftQuality:1]]
[2020.03.10-02.46.43:558][  0]LogConfig: Setting CVar [[r.Filter.SizeScale:1]]
[2020.03.10-02.46.43:558][  0]LogConfig: Setting CVar [[r.Tonemapper.Quality:5]]
[2020.03.10-02.46.43:558][  0]LogConfig: Setting CVar [[r.DOF.Gather.AccumulatorQuality:1        ; higher gathering accumulator quality]]
[2020.03.10-02.46.43:558][  0]LogConfig: Setting CVar [[r.DOF.Gather.PostfilterMethod:1          ; Median3x3 postfilering method]]
[2020.03.10-02.46.43:558][  0]LogConfig: Setting CVar [[r.DOF.Gather.EnableBokehSettings:0       ; no bokeh simulation when gathering]]
[2020.03.10-02.46.43:558][  0]LogConfig: Setting CVar [[r.DOF.Gather.RingCount:4                 ; medium number of samples when gathering]]
[2020.03.10-02.46.43:558][  0]LogConfig: Setting CVar [[r.DOF.Scatter.ForegroundCompositing:1    ; additive foreground scattering]]
[2020.03.10-02.46.43:558][  0]LogConfig: Setting CVar [[r.DOF.Scatter.BackgroundCompositing:2    ; additive background scattering]]
[2020.03.10-02.46.43:558][  0]LogConfig: Setting CVar [[r.DOF.Scatter.EnableBokehSettings:1      ; bokeh simulation when scattering]]
[2020.03.10-02.46.43:558][  0]LogConfig: Setting CVar [[r.DOF.Scatter.MaxSpriteRatio:0.1         ; only a maximum of 10% of scattered bokeh]]
[2020.03.10-02.46.43:558][  0]LogConfig: Setting CVar [[r.DOF.Recombine.Quality:1                ; cheap slight out of focus]]
[2020.03.10-02.46.43:558][  0]LogConfig: Setting CVar [[r.DOF.Recombine.EnableBokehSettings:0    ; no bokeh simulation on slight out of focus]]
[2020.03.10-02.46.43:558][  0]LogConfig: Setting CVar [[r.DOF.TemporalAAQuality:1                ; more stable temporal accumulation]]
[2020.03.10-02.46.43:558][  0]LogConfig: Setting CVar [[r.DOF.Kernel.MaxForegroundRadius:0.025]]
[2020.03.10-02.46.43:558][  0]LogConfig: Setting CVar [[r.DOF.Kernel.MaxBackgroundRadius:0.025]]
[2020.03.10-02.46.43:558][  0]LogConfig: Applying CVar settings from Section [TextureQuality@3] File [C:/Users/Пользователь/Desktop/SkillBox/Homework/HM8/MyProject2/Saved/Config/Windows/Scalability.ini]
[2020.03.10-02.46.43:558][  0]LogConfig: Setting CVar [[r.Streaming.MipBias:0]]
[2020.03.10-02.46.43:558][  0]LogConfig: Setting CVar [[r.Streaming.AmortizeCPUToGPUCopy:0]]
[2020.03.10-02.46.43:558][  0]LogConfig: Setting CVar [[r.Streaming.MaxNumTexturesToStreamPerFrame:0]]
[2020.03.10-02.46.43:558][  0]LogConfig: Setting CVar [[r.Streaming.Boost:1]]
[2020.03.10-02.46.43:558][  0]LogConfig: Setting CVar [[r.MaxAnisotropy:8]]
[2020.03.10-02.46.43:558][  0]LogConfig: Setting CVar [[r.Streaming.LimitPoolSizeToVRAM:0]]
[2020.03.10-02.46.43:558][  0]LogConfig: Setting CVar [[r.Streaming.PoolSize:1000]]
[2020.03.10-02.46.43:558][  0]LogConfig: Setting CVar [[r.Streaming.MaxEffectiveScreenSize:0]]
[2020.03.10-02.46.43:558][  0]LogConfig: Applying CVar settings from Section [EffectsQuality@3] File [C:/Users/Пользователь/Desktop/SkillBox/Homework/HM8/MyProject2/Saved/Config/Windows/Scalability.ini]
[2020.03.10-02.46.43:558][  0]LogConfig: Setting CVar [[r.TranslucencyLightingVolumeDim:64]]
[2020.03.10-02.46.43:558][  0]LogConfig: Setting CVar [[r.RefractionQuality:2]]
[2020.03.10-02.46.43:558][  0]LogConfig: Setting CVar [[r.SSR.Quality:3]]
[2020.03.10-02.46.43:558][  0]LogConfig: Setting CVar [[r.SceneColorFormat:4]]
[2020.03.10-02.46.43:558][  0]LogConfig: Setting CVar [[r.DetailMode:2]]
[2020.03.10-02.46.43:558][  0]LogConfig: Setting CVar [[r.TranslucencyVolumeBlur:1]]
[2020.03.10-02.46.43:558][  0]LogConfig: Setting CVar [[r.MaterialQualityLevel:1 ; High quality]]
[2020.03.10-02.46.43:558][  0]LogConfig: Setting CVar [[r.SSS.Scale:1]]
[2020.03.10-02.46.43:558][  0]LogConfig: Setting CVar [[r.SSS.SampleSet:2]]
[2020.03.10-02.46.43:558][  0]LogConfig: Setting CVar [[r.SSS.Quality:1]]
[2020.03.10-02.46.43:558][  0]LogConfig: Setting CVar [[r.SSS.HalfRes:1]]
[2020.03.10-02.46.43:558][  0]LogConfig: Setting CVar [[r.EmitterSpawnRateScale:1.0]]
[2020.03.10-02.46.43:558][  0]LogConfig: Setting CVar [[r.ParticleLightQuality:2]]
[2020.03.10-02.46.43:558][  0]LogConfig: Applying CVar settings from Section [FoliageQuality@3] File [C:/Users/Пользователь/Desktop/SkillBox/Homework/HM8/MyProject2/Saved/Config/Windows/Scalability.ini]
[2020.03.10-02.46.43:558][  0]LogConfig: Setting CVar [[foliage.DensityScale:1.0]]
[2020.03.10-02.46.43:558][  0]LogConfig: Setting CVar [[grass.DensityScale:1.0]]
[2020.03.10-02.46.43:558][  0]LogConfig: Applying CVar settings from Section [Startup] File [../../../Engine/Config/ConsoleVariables.ini]
[2020.03.10-02.46.43:578][  0]LogConfig: Setting CVar [[net.UseAdaptiveNetUpdateFrequency:0]]
[2020.03.10-02.46.43:578][  0]LogConfig: Setting CVar [[p.chaos.AllowCreatePhysxBodies:1]]
[2020.03.10-02.46.43:578][  0]LogConfig: Applying CVar settings from Section [ConsoleVariables] File [C:/Users/Пользователь/Desktop/SkillBox/Homework/HM8/MyProject2/Saved/Config/Windows/Engine.ini]
[2020.03.10-02.46.43:598][  0]LogInit: Computer: HOME
[2020.03.10-02.46.43:598][  0]LogInit: User: Пользователь
[2020.03.10-02.46.43:598][  0]LogInit: CPU Page size=4096, Cores=4
[2020.03.10-02.46.43:598][  0]LogInit: High frequency timer resolution =10.000000 MHz
[2020.03.10-02.46.43:598][  0]LogMemory: Memory total: Physical=15.9GB (16GB approx)
[2020.03.10-02.46.43:598][  0]LogMemory: Platform Memory Stats for Windows
[2020.03.10-02.46.43:598][  0]LogMemory: Process Physical Memory: 96.65 MB used, 96.66 MB peak
[2020.03.10-02.46.43:598][  0]LogMemory: Process Virtual Memory: 83.92 MB used, 83.92 MB peak
[2020.03.10-02.46.43:598][  0]LogMemory: Physical Memory: 6138.66 MB used,  10116.12 MB free, 16254.78 MB total
[2020.03.10-02.46.43:598][  0]LogMemory: Virtual Memory: 4625.03 MB used,  134213104.00 MB free, 134217728.00 MB total
[2020.03.10-02.46.44:854][  0]LogInit: Using OS detected language (ru-RU).
[2020.03.10-02.46.44:854][  0]LogInit: Using OS detected locale (ru-RU).
[2020.03.10-02.46.44:876][  0]LogTextLocalizationManager: No specific localization for 'ru-RU' exists, so the 'ru' localization will be used.
[2020.03.10-02.46.44:877][  0]LogTextLocalizationResource: LocRes '../../../Engine/Content/Localization/Editor/ru/Editor.locres' could not be opened for reading!
[2020.03.10-02.46.44:877][  0]LogTextLocalizationResource: LocRes '../../../Engine/Content/Localization/EditorTutorials/ru/EditorTutorials.locres' could not be opened for reading!
[2020.03.10-02.46.44:877][  0]LogTextLocalizationResource: LocRes '../../../Engine/Content/Localization/Keywords/ru/Keywords.locres' could not be opened for reading!
[2020.03.10-02.46.44:878][  0]LogTextLocalizationResource: LocRes '../../../Engine/Content/Localization/Category/ru/Category.locres' could not be opened for reading!
[2020.03.10-02.46.44:878][  0]LogTextLocalizationResource: LocRes '../../../Engine/Content/Localization/ToolTips/ru/ToolTips.locres' could not be opened for reading!
[2020.03.10-02.46.44:878][  0]LogTextLocalizationResource: LocRes '../../../Engine/Content/Localization/PropertyNames/ru/PropertyNames.locres' could not be opened for reading!
[2020.03.10-02.46.44:878][  0]LogTextLocalizationResource: LocRes '../../../Engine/Content/Localization/Engine/ru/Engine.locres' could not be opened for reading!
[2020.03.10-02.46.44:966][  0]LogInit: Setting process to per monitor DPI aware
[2020.03.10-02.46.45:300][  0]LogSlate: New Slate User Created.  User Index 0, Is Virtual User: 0
[2020.03.10-02.46.45:300][  0]LogSlate: Slate User Registered.  User Index 0, Is Virtual User: 0
[2020.03.10-02.46.51:883][  0]LogHMD: Failed to initialize OpenVR with code 110
[2020.03.10-02.46.51:883][  0]LogD3D11RHI: D3D11 adapters:
[2020.03.10-02.46.51:953][  0]LogD3D11RHI:    0. 'NVIDIA GeForce GTX 960' (Feature Level 11_0)
[2020.03.10-02.46.51:953][  0]LogD3D11RHI:       2007/0/8127 MB DedicatedVideo/DedicatedSystem/SharedSystem, Outputs:1, VendorId:0x10de
[2020.03.10-02.46.51:963][  0]LogD3D11RHI:    1. 'Intel(R) HD Graphics 4600' (Feature Level 11_0)
[2020.03.10-02.46.51:963][  0]LogD3D11RHI:       112/0/2048 MB DedicatedVideo/DedicatedSystem/SharedSystem, Outputs:1, VendorId:0x8086
[2020.03.10-02.46.51:966][  0]LogD3D11RHI:    2. 'Microsoft Basic Render Driver' (Feature Level 11_0)
[2020.03.10-02.46.51:966][  0]LogD3D11RHI:       0/0/8127 MB DedicatedVideo/DedicatedSystem/SharedSystem, Outputs:0, VendorId:0x1414
[2020.03.10-02.46.51:966][  0]LogD3D11RHI: Chosen D3D11 Adapter: 0
[2020.03.10-02.46.51:977][  0]LogD3D11RHI: Creating new Direct3DDevice
[2020.03.10-02.46.51:977][  0]LogD3D11RHI:     GPU DeviceId: 0x1401 (for the marketing name, search the web for "GPU Device Id")
[2020.03.10-02.46.51:985][  0]LogWindows: EnumDisplayDevices:
[2020.03.10-02.46.51:985][  0]LogWindows:    0. 'NVIDIA GeForce GTX 960' (P:1 D:1)
[2020.03.10-02.46.51:986][  0]LogWindows:    1. 'NVIDIA GeForce GTX 960' (P:0 D:0)
[2020.03.10-02.46.51:986][  0]LogWindows:    2. 'NVIDIA GeForce GTX 960' (P:0 D:0)
[2020.03.10-02.46.51:987][  0]LogWindows:    3. 'NVIDIA GeForce GTX 960' (P:0 D:0)
[2020.03.10-02.46.51:987][  0]LogWindows:    4. 'Intel(R) HD Graphics 4600' (P:0 D:1)
[2020.03.10-02.46.51:988][  0]LogWindows:    5. 'Intel(R) HD Graphics 4600' (P:0 D:0)
[2020.03.10-02.46.51:988][  0]LogWindows:    6. 'Intel(R) HD Graphics 4600' (P:0 D:0)
[2020.03.10-02.46.51:989][  0]LogWindows: DebugString: PrimaryIsNotTheChoosenAdapter PrimaryIsNotTheChoosenAdapter PrimaryIsNotTheChoosenAdapter FoundDriverCount:4 
[2020.03.10-02.46.51:989][  0]LogD3D11RHI:     Adapter Name: NVIDIA GeForce GTX 960
[2020.03.10-02.46.51:989][  0]LogD3D11RHI:   Driver Version: 432.00 (internal:26.21.14.3200, unified:432.00)
[2020.03.10-02.46.51:989][  0]LogD3D11RHI:      Driver Date: 7-24-2019
[2020.03.10-02.46.51:989][  0]LogRHI: Texture pool is 1405 MB (70% of 2007 MB)
[2020.03.10-02.46.52:069][  0]LogD3D11RHI: Async texture creation enabled
[2020.03.10-02.46.52:121][  0]LogRendererCore: FGlobalReadBuffer::InitRHI
[2020.03.10-02.46.52:128][  0]LogRendererCore: FGlobalReadBuffer::InitRHI
[2020.03.10-02.46.52:128][  0]LogRendererCore: FGlobalReadBuffer::InitRHI
[2020.03.10-02.46.52:149][  0]LogD3D11RHI: GPU Timing Frequency: 1000.000000 (Debug: 2 1)
[2020.03.10-02.46.53:291][  0]LogTemp: Display: Module 'AllDesktopTargetPlatform' loaded TargetPlatform 'AllDesktop'
[2020.03.10-02.46.53:313][  0]LogTemp: Display: Module 'MacClientTargetPlatform' loaded TargetPlatform 'MacClient'
[2020.03.10-02.46.53:378][  0]LogTemp: Display: Module 'MacNoEditorTargetPlatform' loaded TargetPlatform 'MacNoEditor'
[2020.03.10-02.46.53:402][  0]LogTemp: Display: Module 'MacServerTargetPlatform' loaded TargetPlatform 'MacServer'
[2020.03.10-02.46.53:464][  0]LogTemp: Display: Module 'MacTargetPlatform' loaded TargetPlatform 'Mac'
[2020.03.10-02.46.53:490][  0]LogTemp: Display: Module 'WindowsClientTargetPlatform' loaded TargetPlatform 'WindowsClient'
[2020.03.10-02.46.53:509][  0]LogTemp: Display: Module 'WindowsNoEditorTargetPlatform' loaded TargetPlatform 'WindowsNoEditor'
[2020.03.10-02.46.53:537][  0]LogTemp: Display: Module 'WindowsServerTargetPlatform' loaded TargetPlatform 'WindowsServer'
[2020.03.10-02.46.53:549][  0]LogTemp: Display: Module 'WindowsTargetPlatform' loaded TargetPlatform 'Windows'
[2020.03.10-02.46.53:726][  0]LogTemp: Display: Module 'AndroidTargetPlatform' loaded TargetPlatform 'Android'
[2020.03.10-02.46.53:726][  0]LogTemp: Display: Module 'AndroidTargetPlatform' loaded TargetPlatform 'Android_ASTC'
[2020.03.10-02.46.53:726][  0]LogTemp: Display: Module 'AndroidTargetPlatform' loaded TargetPlatform 'Android_ATC'
[2020.03.10-02.46.53:726][  0]LogTemp: Display: Module 'AndroidTargetPlatform' loaded TargetPlatform 'Android_DXT'
[2020.03.10-02.46.53:726][  0]LogTemp: Display: Module 'AndroidTargetPlatform' loaded TargetPlatform 'Android_ETC1'
[2020.03.10-02.46.53:726][  0]LogTemp: Display: Module 'AndroidTargetPlatform' loaded TargetPlatform 'Android_ETC1a'
[2020.03.10-02.46.53:726][  0]LogTemp: Display: Module 'AndroidTargetPlatform' loaded TargetPlatform 'Android_ETC2'
[2020.03.10-02.46.53:726][  0]LogTemp: Display: Module 'AndroidTargetPlatform' loaded TargetPlatform 'Android_PVRTC'
[2020.03.10-02.46.53:726][  0]LogTemp: Display: Module 'AndroidTargetPlatform' loaded TargetPlatform 'AndroidClient'
[2020.03.10-02.46.53:726][  0]LogTemp: Display: Module 'AndroidTargetPlatform' loaded TargetPlatform 'Android_ASTCClient'
[2020.03.10-02.46.53:726][  0]LogTemp: Display: Module 'AndroidTargetPlatform' loaded TargetPlatform 'Android_ATCClient'
[2020.03.10-02.46.53:726][  0]LogTemp: Display: Module 'AndroidTargetPlatform' loaded TargetPlatform 'Android_DXTClient'
[2020.03.10-02.46.53:726][  0]LogTemp: Display: Module 'AndroidTargetPlatform' loaded TargetPlatform 'Android_ETC1Client'
[2020.03.10-02.46.53:726][  0]LogTemp: Display: Module 'AndroidTargetPlatform' loaded TargetPlatform 'Android_ETC1aClient'
[2020.03.10-02.46.53:726][  0]LogTemp: Display: Module 'AndroidTargetPlatform' loaded TargetPlatform 'Android_ETC2Client'
[2020.03.10-02.46.53:726][  0]LogTemp: Display: Module 'AndroidTargetPlatform' loaded TargetPlatform 'Android_PVRTCClient'
[2020.03.10-02.46.53:726][  0]LogTemp: Display: Module 'AndroidTargetPlatform' loaded TargetPlatform 'Android_Multi'
[2020.03.10-02.46.53:726][  0]LogTemp: Display: Module 'AndroidTargetPlatform' loaded TargetPlatform 'Android_MultiClient'
[2020.03.10-02.46.53:736][  0]LogTemp: Display: Module 'HTML5TargetPlatform' loaded TargetPlatform 'HTML5'
[2020.03.10-02.46.53:864][  0]LogTemp: Display: Module 'IOSTargetPlatform' loaded TargetPlatform 'IOSClient'
[2020.03.10-02.46.53:864][  0]LogTemp: Display: Module 'IOSTargetPlatform' loaded TargetPlatform 'IOS'
[2020.03.10-02.46.53:902][  0]LogTemp: Display: Module 'TVOSTargetPlatform' loaded TargetPlatform 'TVOSClient'
[2020.03.10-02.46.53:902][  0]LogTemp: Display: Module 'TVOSTargetPlatform' loaded TargetPlatform 'TVOS'
[2020.03.10-02.46.53:918][  0]LogTemp: Display: Module 'LinuxClientTargetPlatform' loaded TargetPlatform 'LinuxClient'
[2020.03.10-02.46.53:935][  0]LogTemp: Display: Module 'LinuxNoEditorTargetPlatform' loaded TargetPlatform 'LinuxNoEditor'
[2020.03.10-02.46.53:952][  0]LogTemp: Display: Module 'LinuxServerTargetPlatform' loaded TargetPlatform 'LinuxServer'
[2020.03.10-02.46.54:000][  0]LogTemp: Display: Module 'LinuxTargetPlatform' loaded TargetPlatform 'Linux'
[2020.03.10-02.46.54:078][  0]LogTemp: Display: Module 'LuminTargetPlatform' loaded TargetPlatform 'Lumin'
[2020.03.10-02.46.54:078][  0]LogTemp: Display: Module 'LuminTargetPlatform' loaded TargetPlatform 'LuminClient'
[2020.03.10-02.46.54:078][  0]LogTargetPlatformManager: Display: Building Assets For Windows
[2020.03.10-02.46.54:191][  0]LogAudioDebug: Display: Lib vorbis DLL was dynamically loaded.
[2020.03.10-02.46.54:514][  0]LogShaderCompilers: Guid format shader working directory is -25 characters bigger than the processId version (../../../../../../Users/Пользователь/Desktop/SkillBox/Homework/HM8/MyProject2/Intermediate/Shaders/WorkingDirectory/40312/).
[2020.03.10-02.46.54:514][  0]LogShaderCompilers: Cleaned the shader compiler working directory 'C:/Users/Пользователь/AppData/Local/Temp/UnrealShaderWorkingDir/201431D44D3042EB4F492488F68B9B4E/'.
[2020.03.10-02.46.54:532][  0]LogXGEController: Cleaning working directory: C:/Users/Пользователь/AppData/Local/Temp/UnrealXGEWorkingDir/
[2020.03.10-02.46.54:532][  0]LogXGEController: Cannot use XGE Controller as Incredibuild is not installed on this machine.
[2020.03.10-02.46.54:532][  0]LogShaderCompilers: Cannot use XGE Shader Compiler as Incredibuild is not installed on this machine.
[2020.03.10-02.46.54:532][  0]LogShaderCompilers: Display: Using Local Shader Compiler.
[2020.03.10-02.47.01:340][  0]LogDerivedDataCache: Display: Max Cache Size: 512 MB
[2020.03.10-02.47.01:891][  0]LogDerivedDataCache: Loaded boot cache 0.55s 71MB C:/Users/Пользователь/AppData/Local/UnrealEngine/4.22/DerivedDataCache/Boot.ddc.
[2020.03.10-02.47.01:891][  0]LogDerivedDataCache: Display: Loaded Boot cache: C:/Users/Пользователь/AppData/Local/UnrealEngine/4.22/DerivedDataCache/Boot.ddc
[2020.03.10-02.47.01:891][  0]LogDerivedDataCache: FDerivedDataBackendGraph:  Pak pak cache file ../../../../../../Users/Пользователь/Desktop/SkillBox/Homework/HM8/MyProject2/DerivedDataCache/DDC.ddp not found, will not use a pak cache.
[2020.03.10-02.47.01:891][  0]LogDerivedDataCache: Unable to find inner node Pak for hierarchical cache Hierarchy.
[2020.03.10-02.47.01:891][  0]LogDerivedDataCache: FDerivedDataBackendGraph:  CompressedPak pak cache file ../../../../../../Users/Пользователь/Desktop/SkillBox/Homework/HM8/MyProject2/DerivedDataCache/Compressed.ddp not found, will not use a pak cache.
[2020.03.10-02.47.01:891][  0]LogDerivedDataCache: Unable to find inner node CompressedPak for hierarchical cache Hierarchy.
[2020.03.10-02.47.01:983][  0]LogDerivedDataCache: Display: Pak cache opened for reading ../../../Engine/DerivedDataCache/Compressed.ddp.
[2020.03.10-02.47.01:983][  0]LogDerivedDataCache: FDerivedDataBackendGraph:  EnterprisePak pak cache file ../../../Enterprise/DerivedDataCache/Compressed.ddp not found, will not use a pak cache.
[2020.03.10-02.47.01:983][  0]LogDerivedDataCache: Unable to find inner node EnterprisePak for hierarchical cache Hierarchy.
[2020.03.10-02.47.02:018][  0]LogDerivedDataCache: Using Local data cache path C:/Users/Пользователь/AppData/Local/UnrealEngine/Common/DerivedDataCache: Writable
[2020.03.10-02.47.02:018][  0]LogDerivedDataCache: Shared data cache path not found in *engine.ini, will not use an Shared cache.
[2020.03.10-02.47.02:018][  0]LogDerivedDataCache: Unable to find inner node Shared for hierarchical cache Hierarchy.
[2020.03.10-02.47.02:052][  0]LogMaterial: Verifying Global Shaders for PCD3D_SM5
[2020.03.10-02.47.02:095][  0]LogSlate: Using FreeType 2.6.0
[2020.03.10-02.47.02:124][  0]LogSlate: SlateFontServices - WITH_FREETYPE: 1, WITH_HARFBUZZ: 1
[2020.03.10-02.47.03:586][  0]LogAssetRegistry: FAssetRegistry took 0.0377 seconds to start up
[2020.03.10-02.47.04:974][  0]LogInit: Selected Device Profile: [Windows]
[2020.03.10-02.47.05:937][  0]LogMeshReduction: Using QuadricMeshReduction for automatic static mesh reduction
[2020.03.10-02.47.05:937][  0]LogMeshReduction: Using SimplygonMeshReduction for automatic skeletal mesh reduction
[2020.03.10-02.47.05:937][  0]LogMeshReduction: Using ProxyLODMeshReduction for automatic mesh merging
[2020.03.10-02.47.05:937][  0]LogMeshReduction: No distributed automatic mesh merging module available
[2020.03.10-02.47.05:937][  0]LogMeshMerging: No distributed automatic mesh merging module available
[2020.03.10-02.47.06:236][  0]LogNetVersion: MyProject2 1.0.0, NetCL: 5660361, EngineNetVer: 10, GameNetVer: 0 (Checksum: 4139302413)
[2020.03.10-02.47.09:983][  0]LogPackageLocalizationCache: Processed 10 localized package path(s) for 1 prioritized culture(s) in 0.076275 seconds
[2020.03.10-02.47.10:006][  0]LogUObjectArray: 42205 objects as part of root set at end of initial load.
[2020.03.10-02.47.10:006][  0]LogUObjectAllocator: 7325032 out of 0 bytes used by permanent object pool.
[2020.03.10-02.47.10:006][  0]LogUObjectArray: CloseDisregardForGC: 0/0 objects in disregard for GC pool
[2020.03.10-02.47.29:459][  0]LogTcpMessaging: Initializing TcpMessaging bridge
[2020.03.10-02.47.29:479][  0]LogUdpMessaging: Initializing bridge on interface 0.0.0.0:0 to multicast group 230.0.0.1:6666.
[2020.03.10-02.47.29:937][  0]SourceControl: Source control is disabled
[2020.03.10-02.47.32:986][  0]LogAndroidPermission: UAndroidPermissionCallbackProxy::GetInstance
[2020.03.10-02.47.33:589][  0]LogOcInput: OculusInput pre-init called
[2020.03.10-02.47.35:289][  0]LogEngine: Initializing Engine...
[2020.03.10-02.47.35:296][  0]LogHMD: Failed to initialize OpenVR with code 110
[2020.03.10-02.47.35:304][  0]LogStats: UGameplayTagsManager::InitializeManager -  0.001 s
[2020.03.10-02.47.36:247][  0]LogInit: Initializing FReadOnlyCVARCache
[2020.03.10-02.47.36:387][  0]LogAIModule: Creating AISystem for world Untitled
[2020.03.10-02.47.36:492][  0]LogInit: XAudio2 using 'gggg (Realtek High Definition Audio)' : 2 channels at 48 kHz using 16 bits per sample (channel mask 0x3)
[2020.03.10-02.47.36:567][  0]LogInit: FAudioDevice initialized.
[2020.03.10-02.47.36:567][  0]LogNetVersion: Set ProjectVersion to 1.0.0.0. Version Checksum will be recalculated on next use.
[2020.03.10-02.47.36:717][  0]LogDerivedDataCache: Saved boot cache 0.15s 71MB C:/Users/Пользователь/AppData/Local/UnrealEngine/4.22/DerivedDataCache/Boot.ddc.
[2020.03.10-02.47.36:730][  0]LogInit: Texture streaming: Enabled
[2020.03.10-02.47.36:851][  0]LogEngineSessionManager: EngineSessionManager initialized
[2020.03.10-02.47.37:252][  0]LogInit: Transaction tracking system initialized
[2020.03.10-02.47.37:431][  0]BlueprintLog: New page: Editor Load
[2020.03.10-02.47.38:078][  0]LocalizationService: Localization service is disabled
[2020.03.10-02.47.40:520][  0]LogFileCache: Scanning file cache for directory 'C:/Users/Пользователь/Desktop/SkillBox/Homework/HM8/MyProject2/Content/' took 0.02s
[2020.03.10-02.47.40:520][  0]LogCook: Display: Max memory allowance for cook 16384mb min free memory 0mb
[2020.03.10-02.47.40:520][  0]LogCook: Display: Mobile HDR setting 1
[2020.03.10-02.47.42:860][  0]Cmd: MAP LOAD FILE="../../../../../../Users/Пользователь/Desktop/SkillBox/Homework/HM8/MyProject2/Content/TopDownBP/Maps/TopDownExampleMap.umap" TEMPLATE=0 SHOWPROGRESS=1 FEATURELEVEL=3
[2020.03.10-02.47.42:864][  0]LightingResults: New page: Lighting Build
[2020.03.10-02.47.42:890][  0]MapCheck: New page: Map Check
[2020.03.10-02.47.42:890][  0]LightingResults: New page: Lighting Build
[2020.03.10-02.47.42:920][  0]LogUObjectHash: Compacting FUObjectHashTables data took   2.11ms
[2020.03.10-02.47.43:982][  0]LogAIModule: Creating AISystem for world TopDownExampleMap
[2020.03.10-02.47.44:539][  0]LogEditorServer: Finished looking for orphan Actors (0.000 secs)
[2020.03.10-02.47.44:603][  0]LogUObjectHash: Compacting FUObjectHashTables data took   2.65ms
[2020.03.10-02.47.44:612][  0]Cmd: MAP CHECKDEP NOCLEARLOG
[2020.03.10-02.47.44:620][  0]MapCheck: Map check complete: 0 Error(s), 0 Warning(s), took 0,198ms to complete.
[2020.03.10-02.47.44:621][  0]LogFileHelpers: Loading map 'TopDownExampleMap' took 1.769
[2020.03.10-02.47.45:268][  0]LogCollectionManager: Loaded 0 collections in 0.001179 seconds
[2020.03.10-02.47.45:372][  0]LogFileCache: Scanning file cache for directory 'C:/Users/Пользователь/Desktop/SkillBox/Homework/HM8/MyProject2/Saved/Collections/' took 0.01s
[2020.03.10-02.47.45:372][  0]LogFileCache: Scanning file cache for directory 'C:/Users/Пользователь/Desktop/SkillBox/Homework/HM8/MyProject2/Content/Developers/Пользователь/Collections/' took 0.01s
[2020.03.10-02.47.45:372][  0]LogFileCache: Scanning file cache for directory 'C:/Users/Пользователь/Desktop/SkillBox/Homework/HM8/MyProject2/Content/Collections/' took 0.01s
[2020.03.10-02.47.45:372][  0]LogCollectionManager: Rebuilt the GUID cache for 0 collections in 0.000000 seconds
[2020.03.10-02.47.45:382][  0]LogContentBrowser: Native class hierarchy populated in 0.0094 seconds. Added 2732 classes and 659 folders.
[2020.03.10-02.47.45:466][  0]LogContentBrowser: Native class hierarchy updated for 'WidgetCarousel' in 0.0003 seconds. Added 0 classes and 0 folders.
[2020.03.10-02.47.45:499][  0]LogPakFile: Registered encryption key '00000000000000000000000000000000': 0 pak files mounted, 0 remain pending
[2020.03.10-02.47.45:515][  0]LogPakFile: Registered encryption key '00000000000000000000000000000000': 0 pak files mounted, 0 remain pending
[2020.03.10-02.47.45:543][  0]LogPakFile: Registered encryption key '00000000000000000000000000000000': 0 pak files mounted, 0 remain pending
[2020.03.10-02.47.45:559][  0]LogPakFile: Registered encryption key '00000000000000000000000000000000': 0 pak files mounted, 0 remain pending
[2020.03.10-02.47.45:576][  0]LogPakFile: Registered encryption key '00000000000000000000000000000000': 0 pak files mounted, 0 remain pending
[2020.03.10-02.47.45:598][  0]LogPakFile: Registered encryption key '00000000000000000000000000000000': 0 pak files mounted, 0 remain pending
[2020.03.10-02.47.45:615][  0]LogPakFile: Registered encryption key '00000000000000000000000000000000': 0 pak files mounted, 0 remain pending
[2020.03.10-02.47.45:675][  0]LogPakFile: Registered encryption key '00000000000000000000000000000000': 0 pak files mounted, 0 remain pending
[2020.03.10-02.47.45:696][  0]LogPakFile: Registered encryption key '00000000000000000000000000000000': 0 pak files mounted, 0 remain pending
[2020.03.10-02.47.45:715][  0]LogPakFile: Registered encryption key '00000000000000000000000000000000': 0 pak files mounted, 0 remain pending
[2020.03.10-02.47.45:731][  0]LogPakFile: Registered encryption key '00000000000000000000000000000000': 0 pak files mounted, 0 remain pending
[2020.03.10-02.47.45:751][  0]LogPakFile: Registered encryption key '00000000000000000000000000000000': 0 pak files mounted, 0 remain pending
[2020.03.10-02.47.45:773][  0]LogPakFile: Registered encryption key '00000000000000000000000000000000': 0 pak files mounted, 0 remain pending
[2020.03.10-02.47.45:783][  0]LogPakFile: Registered encryption key '00000000000000000000000000000000': 0 pak files mounted, 0 remain pending
[2020.03.10-02.47.45:802][  0]LogPakFile: Registered encryption key '00000000000000000000000000000000': 0 pak files mounted, 0 remain pending
[2020.03.10-02.47.45:820][  0]LogPakFile: Registered encryption key '00000000000000000000000000000000': 0 pak files mounted, 0 remain pending
[2020.03.10-02.47.45:865][  0]LogPakFile: Registered encryption key '00000000000000000000000000000000': 0 pak files mounted, 0 remain pending
[2020.03.10-02.47.45:904][  0]LogPakFile: Registered encryption key '00000000000000000000000000000000': 0 pak files mounted, 0 remain pending
[2020.03.10-02.47.45:925][  0]LogPakFile: Registered encryption key '00000000000000000000000000000000': 0 pak files mounted, 0 remain pending
[2020.03.10-02.47.45:940][  0]LogPakFile: Registered encryption key '00000000000000000000000000000000': 0 pak files mounted, 0 remain pending
[2020.03.10-02.47.45:962][  0]LogPakFile: Registered encryption key '00000000000000000000000000000000': 0 pak files mounted, 0 remain pending
[2020.03.10-02.47.45:977][  0]LogPakFile: Registered encryption key '00000000000000000000000000000000': 0 pak files mounted, 0 remain pending
[2020.03.10-02.47.45:988][  0]LogPakFile: Registered encryption key '00000000000000000000000000000000': 0 pak files mounted, 0 remain pending
[2020.03.10-02.47.46:001][  0]LogPakFile: Registered encryption key '00000000000000000000000000000000': 0 pak files mounted, 0 remain pending
[2020.03.10-02.47.46:018][  0]LogPakFile: Registered encryption key '00000000000000000000000000000000': 0 pak files mounted, 0 remain pending
[2020.03.10-02.47.46:035][  0]LogPakFile: Registered encryption key '00000000000000000000000000000000': 0 pak files mounted, 0 remain pending
[2020.03.10-02.47.46:739][  0]LogContentBrowser: Native class hierarchy updated for 'AddContentDialog' in 0.0004 seconds. Added 0 classes and 0 folders.
[2020.03.10-02.47.47:023][  0]LogSlate: Updating window title bar state: overlay mode, drag disabled, window buttons hidden, title bar hidden
[2020.03.10-02.47.47:040][  0]LogSlate: Updating window title bar state: overlay mode, drag disabled, window buttons hidden, title bar hidden
[2020.03.10-02.47.47:051][  0]LogSlate: Updating window title bar state: overlay mode, drag disabled, window buttons hidden, title bar hidden
[2020.03.10-02.47.47:060][  0]LogSlate: Updating window title bar state: overlay mode, drag disabled, window buttons hidden, title bar hidden
[2020.03.10-02.47.47:137][  0]LogContentBrowser: Native class hierarchy updated for 'SceneOutliner' in 0.0004 seconds. Added 1 classes and 2 folders.
[2020.03.10-02.47.47:298][  0]LogSlate: Took 0.014483 seconds to synchronously load lazily loaded font '../../../Engine/Content/Slate/Fonts/Roboto-Regular.ttf' (155K)
[2020.03.10-02.47.47:313][  0]LogSlate: Took 0.013761 seconds to synchronously load lazily loaded font '../../../Engine/Content/Editor/Slate/Fonts/FontAwesome.ttf' (139K)
[2020.03.10-02.47.47:344][  0]LogSlate: Took 0.017295 seconds to synchronously load lazily loaded font '../../../Engine/Content/Slate/Fonts/Roboto-Bold.ttf' (160K)
[2020.03.10-02.47.47:636][  0]LogRenderer: Reallocating scene render targets to support 1160x964 Format 10 NumSamples 1 (Frame:1).
[2020.03.10-02.47.47:992][  0]LogContentBrowser: Native class hierarchy updated for 'HierarchicalLODOutliner' in 0.0003 seconds. Added 0 classes and 0 folders.
[2020.03.10-02.47.47:992][  0]LogLoad: (Engine Initialization) Total time: 84.29 seconds
[2020.03.10-02.47.47:992][  0]LogLoad: (Engine Initialization) Total Blueprint compile time: 0.00 seconds
[2020.03.10-02.47.48:138][  0]LogContentStreaming: Texture pool size now 1000 MB
[2020.03.10-02.47.48:200][  0]LogSlate: Took 0.014369 seconds to synchronously load lazily loaded font '../../../Engine/Content/Slate/Fonts/Roboto-Light.ttf' (167K)
[2020.03.10-02.47.48:300][  1]LogAssetRegistry: Asset discovery search completed in 44.7361 seconds
[2020.03.10-02.47.48:302][  1]LogCollectionManager: Rebuilt the object cache for 0 collections in 0.000000 seconds (found 0 objects)
[2020.03.10-02.47.48:302][  1]LogCollectionManager: Fixed up redirectors for 0 collections in 0.000066 seconds (updated 0 objects)
[2020.03.10-02.47.49:612][  5]LogSlate: Took 0.000326 seconds to synchronously load lazily loaded font '../../../Engine/Content/Slate/Fonts/Roboto-Light.ttf' (167K)
[2020.03.10-02.49.06:769][127]LogEditorViewport: Clicking on Actor (LMB): Bp_pawn_C (Bp_pawn)
[2020.03.10-02.49.33:928][237]LogSlate: FSceneViewport::OnFocusLost() reason 0
[2020.03.10-02.49.38:121][407]LogSlate: FSceneViewport::OnFocusLost() reason 0
[2020.03.10-02.50.58:603][844]LogAssetEditorManager: Opening Asset editor for Blueprint /Game/TopDownBP/Blueprints/Bp_pawn.Bp_pawn
[2020.03.10-02.50.59:495][844]LogContentBrowser: Native class hierarchy updated for 'BlueprintGraph' in 0.0008 seconds. Added 121 classes and 0 folders.
[2020.03.10-02.51.00:990][844]LogSlate: Took 0.023998 seconds to synchronously load lazily loaded font '../../../Engine/Content/Slate/Fonts/Roboto-BoldCondensed.ttf' (158K)
[2020.03.10-02.51.01:261][845]LogSlate: Took 0.019725 seconds to synchronously load lazily loaded font '../../../Engine/Content/Slate/Fonts/Roboto-Italic.ttf' (157K)
[2020.03.10-02.51.34:238][196]LogSlate: Window 'Bp_pawn' being destroyed
[2020.03.10-02.51.35:945][300]LogTemp: Repeating last play command: Selected Viewport
[2020.03.10-02.51.35:963][300]LogBlueprintUserMessages: Early PlayInEditor Detection: Level '/Game/TopDownBP/Maps/TopDownExampleMap.TopDownExampleMap:PersistentLevel' has LevelScriptBlueprint '/Game/TopDownBP/Maps/TopDownExampleMap.TopDownExampleMap:PersistentLevel.TopDownExampleMap' with GeneratedClass '/Game/TopDownBP/Maps/TopDownExampleMap.TopDownExampleMap_C' with ClassGeneratedBy '/Game/TopDownBP/Maps/TopDownExampleMap.TopDownExampleMap:PersistentLevel.TopDownExampleMap'
[2020.03.10-02.51.35:963][300]LogPlayLevel: PlayLevel: No blueprints needed recompiling
[2020.03.10-02.51.35:964][300]PIE: New page: PIE session: TopDownExampleMap (10 марта 2020 г., 16:51:35)
[2020.03.10-02.51.35:977][300]LogPlayLevel: Creating play world package: /Game/TopDownBP/Maps/UEDPIE_0_TopDownExampleMap
[2020.03.10-02.51.36:010][300]LogPlayLevel: PIE: StaticDuplicateObject took: (0.032656s)
[2020.03.10-02.51.36:015][300]LogAIModule: Creating AISystem for world TopDownExampleMap
[2020.03.10-02.51.36:016][300]LogPlayLevel: PIE: World Init took: (0.005848s)
[2020.03.10-02.51.36:016][300]LogPlayLevel: PIE: Created PIE world by copying editor world from /Game/TopDownBP/Maps/TopDownExampleMap.TopDownExampleMap to /Game/TopDownBP/Maps/UEDPIE_0_TopDownExampleMap.TopDownExampleMap (0.038955s)
[2020.03.10-02.51.36:073][300]LogUObjectHash: Compacting FUObjectHashTables data took   3.98ms
[2020.03.10-02.51.36:155][300]LogInit: XAudio2 using 'gggg (Realtek High Definition Audio)' : 2 channels at 48 kHz using 16 bits per sample (channel mask 0x3)
[2020.03.10-02.51.36:210][300]LogInit: FAudioDevice initialized.
[2020.03.10-02.51.36:254][300]LogLinker: Warning: Can't find file '/Game/TopDownBP/Blueprints/TopDownGameMode'
[2020.03.10-02.51.36:255][300]LogLinker: Warning: Can't find file '/Game/TopDownBP/Blueprints/TopDownGameMode'
[2020.03.10-02.51.36:255][300]LogUObjectGlobals: Warning: Failed to find object 'Class /Game/TopDownBP/Blueprints/TopDownGameMode.TopDownGameMode_C'
[2020.03.10-02.51.36:255][300]LogLoad: Game class is 'GameModeBase'
[2020.03.10-02.51.36:269][300]LogWorld: Bringing World /Game/TopDownBP/Maps/UEDPIE_0_TopDownExampleMap.TopDownExampleMap up for play (max tick rate 0) at 2020.03.10-09.51.36
[2020.03.10-02.51.36:271][300]LogWorld: Bringing up level for play took: 0.014664
[2020.03.10-02.51.36:290][300]LogBlueprintActionDatabase: Requesting refresh due to module change: Voice (loaded)
[2020.03.10-02.51.36:304][300]LogBlueprintActionDatabase: Requesting refresh due to module change: MovieSceneCapture (loaded)
[2020.03.10-02.51.36:304][300]LogContentBrowser: Native class hierarchy updated for 'MovieSceneCapture' in 0.0005 seconds. Added 20 classes and 0 folders.
[2020.03.10-02.51.36:306][300]PIE: Play in editor start time for /Game/TopDownBP/Maps/UEDPIE_0_TopDownExampleMap 1,026
[2020.03.10-02.51.36:306][300]LogBlueprintUserMessages: Late PlayInEditor Detection: Level '/Game/TopDownBP/Maps/TopDownExampleMap.TopDownExampleMap:PersistentLevel' has LevelScriptBlueprint '/Game/TopDownBP/Maps/TopDownExampleMap.TopDownExampleMap:PersistentLevel.TopDownExampleMap' with GeneratedClass '/Game/TopDownBP/Maps/TopDownExampleMap.TopDownExampleMap_C' with ClassGeneratedBy '/Game/TopDownBP/Maps/TopDownExampleMap.TopDownExampleMap:PersistentLevel.TopDownExampleMap'
[2020.03.10-02.51.41:384][515]LogBlueprintUserMessages: Early EndPlayMap Detection: Level '/Game/TopDownBP/Maps/TopDownExampleMap.TopDownExampleMap:PersistentLevel' has LevelScriptBlueprint '/Game/TopDownBP/Maps/TopDownExampleMap.TopDownExampleMap:PersistentLevel.TopDownExampleMap' with GeneratedClass '/Game/TopDownBP/Maps/TopDownExampleMap.TopDownExampleMap_C' with ClassGeneratedBy '/Game/TopDownBP/Maps/TopDownExampleMap.TopDownExampleMap:PersistentLevel.TopDownExampleMap'
[2020.03.10-02.51.41:384][515]LogSlate: Updating window title bar state: overlay mode, drag disabled, window buttons hidden, title bar hidden
[2020.03.10-02.51.41:461][515]LogPlayLevel: Display: Shutting down PIE online subsystems
[2020.03.10-02.51.41:462][515]LogBlueprintUserMessages: Late EndPlayMap Detection: Level '/Game/TopDownBP/Maps/TopDownExampleMap.TopDownExampleMap:PersistentLevel' has LevelScriptBlueprint '/Game/TopDownBP/Maps/TopDownExampleMap.TopDownExampleMap:PersistentLevel.TopDownExampleMap' with GeneratedClass '/Game/TopDownBP/Maps/TopDownExampleMap.TopDownExampleMap_C' with ClassGeneratedBy '/Game/TopDownBP/Maps/TopDownExampleMap.TopDownExampleMap:PersistentLevel.TopDownExampleMap'
[2020.03.10-02.51.41:527][515]LogSlate: Updating window title bar state: overlay mode, drag disabled, window buttons hidden, title bar hidden
[2020.03.10-02.51.41:556][515]LogUObjectHash: Compacting FUObjectHashTables data took   6.23ms
[2020.03.10-02.51.41:578][516]LogPlayLevel: Display: Destroying online subsystem :Context_7
[2020.03.10-02.51.42:697][566]LogEditorViewport: Clicking on Actor (LMB): NewBlueprint_C (NewBlueprint)
[2020.03.10-02.51.44:075][623]Cmd: DELETE
[2020.03.10-02.51.44:076][623]Cmd: ACTOR DELETE
[2020.03.10-02.51.44:217][623]LogEditorActor: Deleted Actor: NewBlueprint_C
[2020.03.10-02.51.44:274][623]LogUObjectHash: Compacting FUObjectHashTables data took   2.70ms
[2020.03.10-02.51.44:275][623]LogEditorActor: Deleted 1 Actors (0.115 secs)
[2020.03.10-02.51.45:496][680]LogSlate: FSceneViewport::OnFocusLost() reason 0
[2020.03.10-02.51.45:558][683]LogTemp: Repeating last play command: Selected Viewport
[2020.03.10-02.51.45:582][683]LogBlueprintUserMessages: Early PlayInEditor Detection: Level '/Game/TopDownBP/Maps/TopDownExampleMap.TopDownExampleMap:PersistentLevel' has LevelScriptBlueprint '/Game/TopDownBP/Maps/TopDownExampleMap.TopDownExampleMap:PersistentLevel.TopDownExampleMap' with GeneratedClass '/Game/TopDownBP/Maps/TopDownExampleMap.TopDownExampleMap_C' with ClassGeneratedBy '/Game/TopDownBP/Maps/TopDownExampleMap.TopDownExampleMap:PersistentLevel.TopDownExampleMap'
[2020.03.10-02.51.45:582][683]LogPlayLevel: PlayLevel: No blueprints needed recompiling
[2020.03.10-02.51.45:582][683]PIE: New page: PIE session: TopDownExampleMap (10 марта 2020 г., 16:51:45)
[2020.03.10-02.51.45:582][683]LogPlayLevel: Creating play world package: /Game/TopDownBP/Maps/UEDPIE_0_TopDownExampleMap
[2020.03.10-02.51.45:609][683]LogPlayLevel: PIE: StaticDuplicateObject took: (0.026222s)
[2020.03.10-02.51.45:610][683]LogAIModule: Creating AISystem for world TopDownExampleMap
[2020.03.10-02.51.45:610][683]LogPlayLevel: PIE: World Init took: (0.001072s)
[2020.03.10-02.51.45:610][683]LogPlayLevel: PIE: Created PIE world by copying editor world from /Game/TopDownBP/Maps/TopDownExampleMap.TopDownExampleMap to /Game/TopDownBP/Maps/UEDPIE_0_TopDownExampleMap.TopDownExampleMap (0.027798s)
[2020.03.10-02.51.45:655][683]LogUObjectHash: Compacting FUObjectHashTables data took   2.48ms
[2020.03.10-02.51.45:730][683]LogInit: XAudio2 using 'gggg (Realtek High Definition Audio)' : 2 channels at 48 kHz using 16 bits per sample (channel mask 0x3)
[2020.03.10-02.51.45:774][683]LogInit: FAudioDevice initialized.
[2020.03.10-02.51.45:803][683]LogLoad: Game class is 'GameModeBase'
[2020.03.10-02.51.45:819][683]LogWorld: Bringing World /Game/TopDownBP/Maps/UEDPIE_0_TopDownExampleMap.TopDownExampleMap up for play (max tick rate 0) at 2020.03.10-09.51.45
[2020.03.10-02.51.45:820][683]LogWorld: Bringing up level for play took: 0.016309
[2020.03.10-02.51.45:833][683]PIE: Play in editor start time for /Game/TopDownBP/Maps/UEDPIE_0_TopDownExampleMap 0,553
[2020.03.10-02.51.45:834][683]LogBlueprintUserMessages: Late PlayInEditor Detection: Level '/Game/TopDownBP/Maps/TopDownExampleMap.TopDownExampleMap:PersistentLevel' has LevelScriptBlueprint '/Game/TopDownBP/Maps/TopDownExampleMap.TopDownExampleMap:PersistentLevel.TopDownExampleMap' with GeneratedClass '/Game/TopDownBP/Maps/TopDownExampleMap.TopDownExampleMap_C' with ClassGeneratedBy '/Game/TopDownBP/Maps/TopDownExampleMap.TopDownExampleMap:PersistentLevel.TopDownExampleMap'
[2020.03.10-02.52.16:068][133]LogBlueprintUserMessages: Early EndPlayMap Detection: Level '/Game/TopDownBP/Maps/TopDownExampleMap.TopDownExampleMap:PersistentLevel' has LevelScriptBlueprint '/Game/TopDownBP/Maps/TopDownExampleMap.TopDownExampleMap:PersistentLevel.TopDownExampleMap' with GeneratedClass '/Game/TopDownBP/Maps/TopDownExampleMap.TopDownExampleMap_C' with ClassGeneratedBy '/Game/TopDownBP/Maps/TopDownExampleMap.TopDownExampleMap:PersistentLevel.TopDownExampleMap'
[2020.03.10-02.52.16:069][133]LogSlate: Updating window title bar state: overlay mode, drag disabled, window buttons hidden, title bar hidden
[2020.03.10-02.52.16:138][133]LogPlayLevel: Display: Shutting down PIE online subsystems
[2020.03.10-02.52.16:138][133]LogBlueprintUserMessages: Late EndPlayMap Detection: Level '/Game/TopDownBP/Maps/TopDownExampleMap.TopDownExampleMap:PersistentLevel' has LevelScriptBlueprint '/Game/TopDownBP/Maps/TopDownExampleMap.TopDownExampleMap:PersistentLevel.TopDownExampleMap' with GeneratedClass '/Game/TopDownBP/Maps/TopDownExampleMap.TopDownExampleMap_C' with ClassGeneratedBy '/Game/TopDownBP/Maps/TopDownExampleMap.TopDownExampleMap:PersistentLevel.TopDownExampleMap'
[2020.03.10-02.52.16:190][133]LogSlate: Updating window title bar state: overlay mode, drag disabled, window buttons hidden, title bar hidden
[2020.03.10-02.52.16:195][133]LogUObjectHash: Compacting FUObjectHashTables data took   2.71ms
[2020.03.10-02.52.16:217][134]LogPlayLevel: Display: Destroying online subsystem :Context_8
[2020.03.10-02.53.31:967][509]LogSlate: FSceneViewport::OnFocusLost() reason 2
[2020.03.10-02.53.33:258][565]LogSlate: FSceneViewport::OnFocusLost() reason 2
[2020.03.10-02.53.33:391][565]LogSlate: FSceneViewport::OnFocusLost() reason 2
[2020.03.10-02.53.33:463][565]LogUObjectHash: Compacting FUObjectHashTables data took   1.05ms
[2020.03.10-02.53.33:933][565]LogSavePackage: Moving '../../../../../../Users/Пользователь/Desktop/SkillBox/Homework/HM8/MyProject2/Saved/TopDownExampleMapCAC3EE6440B7F0BA230919ADB237EA23.tmp' to '../../../../../../Users/Пользователь/Desktop/SkillBox/Homework/HM8/MyProject2/Content/TopDownBP/Maps/TopDownExampleMap.umap'
[2020.03.10-02.53.33:984][565]LogFileHelpers: Saving map 'TopDownExampleMap' took 0.568
[2020.03.10-02.53.34:075][565]LogSavePackage: Moving '../../../../../../Users/Пользователь/Desktop/SkillBox/Homework/HM8/MyProject2/Saved/Bp_pawnFEE25C0E405CF9A792FDFEA448EAB386.tmp' to '../../../../../../Users/Пользователь/Desktop/SkillBox/Homework/HM8/MyProject2/Content/TopDownBP/Blueprints/Bp_pawn.uasset'
